{
  "data": [
    {
      "id": 5097,
      "order_id": 5097,
      "created_at": "2019-04-19 12:00:00",
      "order_sn": "10000-SO-190419602109",
      "buyer_name": "bing冰",
      "total": "45.00",
      "type_count": 1,
      "is_lack": 0,
      "status": 2,
      "status_str": "待配送",
      "type": 1,
      "type_str": "正常"
    }
  ],
  "links": {
    "first": "http://scm-api.com/scm/api/backend/oms/orders?page=1",
    "last": "http://scm-api.com/scm/api/backend/oms/orders?page=1",
    "prev": null,
    "next": null
  },
  "meta": {
    "current_page": 1,
    "from": 1,
    "last_page": 10,
    "path": "http://scm-api.com/scm/api/backend/oms/orders",
    "per_page": 10,
    "to": 1,
    "total": 100
  },
  "status": "success",
  "status_code": 200,
  "error": 0,
  "code": 0
}
