{
  "data": [
    {
      "id": 1,
      "sort": "#1",
      "name": "测试店铺（bing），请不要下单",
      "road_id": 0,
      "road_name": "",
      "num": 0,
      "unit": ""
    },{
      "id": 1,
      "sort": "#1",
      "name": "测试店铺（bing），请不要下单",
      "road_id": 0,
      "road_name": "",
      "num": 0,
      "unit": ""
    },{
      "id": 1,
      "sort": "#1",
      "name": "测试店铺（bing），请不要下单",
      "road_id": 0,
      "road_name": "",
      "num": 0,
      "unit": ""
    },{
      "id": 1,
      "sort": "#1",
      "name": "测试店铺（bing），请不要下单",
      "road_id": 0,
      "road_name": "",
      "num": 0,
      "unit": ""
    },{
      "id": 1,
      "sort": "#1",
      "name": "测试店铺（bing），请不要下单",
      "road_id": 0,
      "road_name": "",
      "num": 0,
      "unit": ""
    },{
      "id": 1,
      "sort": "#1",
      "name": "测试店铺（bing），请不要下单",
      "road_id": 0,
      "road_name": "",
      "num": 0,
      "unit": ""
    },{
      "id": 1,
      "sort": "#1",
      "name": "测试店铺（bing），请不要下单",
      "road_id": 0,
      "road_name": "",
      "num": 0,
      "unit": ""
    },{
      "id": 1,
      "sort": "#1",
      "name": "测试店铺（bing），请不要下单",
      "road_id": 0,
      "road_name": "",
      "num": 0,
      "unit": ""
    },{
      "id": 1,
      "sort": "#1",
      "name": "测试店铺（bing），请不要下单",
      "road_id": 0,
      "road_name": "",
      "num": 0,
      "unit": ""
    }
  ],
  "links": {
    "first": "http://scm-api.com/scm/api/backend/sorting/allocation-detail/1?page=1",
    "last": "http://scm-api.com/scm/api/backend/sorting/allocation-detail/1?page=50",
    "prev": null,
    "next": "http://scm-api.com/scm/api/backend/sorting/allocation-detail/1?page=2"
  },
  "meta": {
    "current_page": 1,
    "from": 1,
    "last_page": 50,
    "path": "http://scm-api.com/scm/api/backend/sorting/allocation-detail/1",
    "per_page": "1",
    "to": 1,
    "total": 50
  },
  "status": "success",
  "status_code": 200,
  "error": 0,
  "code": 0
}
