{
  "data": [
    {
      "id": 215,
      "goods_name": "智利牛油果2个250g/盒",
      "goods_sku_encoding": "",
      "goods_sku_code": "SKU1717172525",
      "goods_category": "水果类",
      "base_num": "5",
      "base_unit": "盒",
      "sale_unit": "份",
      "sale_num": "5",
      "base_wait_pick_num": "4",
      "sale_wait_pick_num": "4",
      "base_out_of_num": "1",
      "sale_out_of_num": "1",
      "position_name": "",
      "merchant_num": 1
    },
    {
      "id": 214,
      "goods_name": "智利牛油果2个250g/盒",
      "goods_sku_encoding": "",
      "goods_sku_code": "SKU1717172525",
      "goods_category": "水果类",
      "base_num": "5",
      "base_unit": "盒",
      "sale_unit": "份",
      "sale_num": "5",
      "base_wait_pick_num": "5",
      "sale_wait_pick_num": "5",
      "base_out_of_num": "0",
      "sale_out_of_num": "0",
      "position_name": "",
      "merchant_num": 1
    },
    {
      "id": 213,
      "goods_name": "智利牛油果2个250g/盒",
      "goods_sku_encoding": "",
      "goods_sku_code": "SKU1717172525",
      "goods_category": "水果类",
      "base_num": "5",
      "base_unit": "盒",
      "sale_unit": "份",
      "sale_num": "5",
      "base_wait_pick_num": "5",
      "sale_wait_pick_num": "5",
      "base_out_of_num": "0",
      "sale_out_of_num": "0",
      "position_name": "",
      "merchant_num": 1
    }
  ],
  "meta": {
    "current_page": 1,
    "from": 1,
    "last_page": 50,
    "path": "http://scm-api.com/scm/api/backend/sorting/allocation-position",
    "per_page": 1,
    "to": 1,
    "total": 50
  },
  "status": "success",
  "status_code": 200,
  "error": 0,
  "code": 0
}
